<?xml version="1.0" encoding="UTF-8"?>
<svg width="30px" height="30px" viewBox="0 0 30 30" version="1.1" xmlns="http://www.w3.org/2000/svg" xmlns:xlink="http://www.w3.org/1999/xlink">
  <g stroke="none" stroke-width="1" fill="none" fill-rule="evenodd" opacity="0.699999988">
    <g transform="translate(5.000000, 8.000000)" fill-rule="nonzero" fill="#FFFFFF">
      <path
        d="M18.299375,2.338125 L15.3026667,2.338125 L15.3026667,0.64375 C15.3026667,0.29875 15.0164444,0.01875 14.6637778,0.01875 L4.50225,0.01875 C4.14958333,0.01875 3.86336111,0.29875 3.86336111,0.64375 L3.86336111,2.338125 L0.867291667,2.338125 C0.514625,2.338125 0.228402778,2.618125 0.228402778,2.963125 L0.228402778,9.5078125 C0.228402778,9.8528125 0.514625,10.1328125 0.867291667,10.1328125 L3.94865278,10.1328125 L3.94865278,14.3559375 C3.94865278,14.7009375 4.234875,14.9809375 4.58754167,14.9809375 L14.5788056,14.9809375 C14.9314722,14.9809375 15.2176944,14.7009375 15.2176944,14.3559375 L15.2176944,10.133125 L18.2990556,10.133125 C18.6517222,10.133125 18.9379444,9.853125 18.9379444,9.508125 L18.9379444,2.963125 C18.9382639,2.618125 18.6523611,2.338125 18.299375,2.338125 Z M5.14113889,1.2690625 L14.0252083,1.2690625 L14.0252083,2.3384375 L5.14113889,2.3384375 L5.14113889,1.2690625 Z M13.9402361,13.7309375 L5.22643056,13.7309375 L5.22643056,7.3503125 L13.9399167,7.3503125 L13.9399167,13.7309375 L13.9402361,13.7309375 Z M17.6604861,8.883125 L15.2180139,8.883125 L15.2180139,6.725625 C15.2180139,6.380625 14.9317917,6.100625 14.579125,6.100625 L4.58754167,6.100625 C4.234875,6.100625 3.94865278,6.380625 3.94865278,6.725625 L3.94865278,8.883125 L1.50618056,8.883125 L1.50618056,3.588125 L17.6604861,3.588125 L17.6604861,8.883125 Z M6.74634722,10.046875 L12.4190417,10.046875 C12.7717083,10.046875 13.0579306,9.766875 13.0579306,9.421875 C13.0579306,9.076875 12.7717083,8.796875 12.4190417,8.796875 L6.74634722,8.796875 C6.39368056,8.796875 6.10745833,9.076875 6.10745833,9.421875 C6.10745833,9.766875 6.39368056,10.046875 6.74634722,10.046875 Z M6.74634722,12.2846875 L12.4190417,12.2846875 C12.7717083,12.2846875 13.0579306,12.0046875 13.0579306,11.6596875 C13.0579306,11.3146875 12.7717083,11.0346875 12.4190417,11.0346875 L6.74634722,11.0346875 C6.39368056,11.0346875 6.10745833,11.3146875 6.10745833,11.6596875 C6.10745833,12.0046875 6.39368056,12.2846875 6.74634722,12.2846875 Z"></path>
    </g>
  </g>
</svg>
